<mxfile host="65bd71144e" modified="2021-02-01T13:33:25.695Z" agent="5.0 (Windows NT 10.0; Win64; x64) AppleWebKit/537.36 (KHTML, like Gecko) Code/1.52.1 Chrome/83.0.4103.122 Electron/9.3.5 Safari/537.36" etag="xHXUung_XuMSM9kS2CR2" version="13.10.0" type="embed" pages="3">
    <diagram id="D2dQF26L4ZX7avEJhCl3" name="Overview">
        <mxGraphModel dx="820" dy="575" grid="1" gridSize="10" guides="1" tooltips="1" connect="1" arrows="1" fold="1" page="1" pageScale="1" pageWidth="827" pageHeight="1169" math="0" shadow="0">
            <root>
                <mxCell id="0"/>
                <mxCell id="1" parent="0"/>
                <mxCell id="2" value="User" style="shape=actor;whiteSpace=wrap;html=1;" parent="1" vertex="1">
                    <mxGeometry x="381" y="23" width="66" height="90" as="geometry"/>
                </mxCell>
                <mxCell id="30" style="edgeStyle=orthogonalEdgeStyle;rounded=1;orthogonalLoop=1;jettySize=auto;html=1;entryX=0.5;entryY=0;entryDx=0;entryDy=0;strokeWidth=2;" parent="1" source="4" target="5" edge="1">
                    <mxGeometry relative="1" as="geometry"/>
                </mxCell>
                <mxCell id="4" value="Browser" style="rounded=0;whiteSpace=wrap;html=1;" parent="1" vertex="1">
                    <mxGeometry x="354" y="130" width="120" height="60" as="geometry"/>
                </mxCell>
                <mxCell id="29" style="edgeStyle=orthogonalEdgeStyle;rounded=1;orthogonalLoop=1;jettySize=auto;html=1;entryX=1;entryY=0.25;entryDx=0;entryDy=0;strokeWidth=2;" parent="1" source="5" target="7" edge="1">
                    <mxGeometry relative="1" as="geometry"/>
                </mxCell>
                <mxCell id="5" value="URLs" style="rounded=0;whiteSpace=wrap;html=1;" parent="1" vertex="1">
                    <mxGeometry x="474" y="240" width="120" height="60" as="geometry"/>
                </mxCell>
                <mxCell id="35" style="edgeStyle=orthogonalEdgeStyle;rounded=1;orthogonalLoop=1;jettySize=auto;html=1;strokeWidth=2;exitX=0.5;exitY=0;exitDx=0;exitDy=0;entryX=0.25;entryY=1;entryDx=0;entryDy=0;" parent="1" source="6" target="4" edge="1">
                    <mxGeometry relative="1" as="geometry">
                        <mxPoint x="380" y="190" as="targetPoint"/>
                    </mxGeometry>
                </mxCell>
                <mxCell id="6" value="Templates" style="rounded=0;whiteSpace=wrap;html=1;" parent="1" vertex="1">
                    <mxGeometry x="234" y="240" width="120" height="60" as="geometry"/>
                </mxCell>
                <mxCell id="28" style="edgeStyle=orthogonalEdgeStyle;rounded=1;orthogonalLoop=1;jettySize=auto;html=1;entryX=1;entryY=0.25;entryDx=0;entryDy=0;strokeWidth=2;exitX=1;exitY=0.75;exitDx=0;exitDy=0;" parent="1" source="7" target="8" edge="1">
                    <mxGeometry relative="1" as="geometry"/>
                </mxCell>
                <mxCell id="33" style="edgeStyle=orthogonalEdgeStyle;rounded=1;orthogonalLoop=1;jettySize=auto;html=1;exitX=0;exitY=0.25;exitDx=0;exitDy=0;entryX=0.5;entryY=1;entryDx=0;entryDy=0;strokeWidth=2;" parent="1" source="7" target="6" edge="1">
                    <mxGeometry relative="1" as="geometry"/>
                </mxCell>
                <mxCell id="34" style="edgeStyle=orthogonalEdgeStyle;rounded=1;orthogonalLoop=1;jettySize=auto;html=1;exitX=0.25;exitY=0;exitDx=0;exitDy=0;entryX=0.25;entryY=1;entryDx=0;entryDy=0;strokeWidth=2;" parent="1" source="7" target="4" edge="1">
                    <mxGeometry relative="1" as="geometry"/>
                </mxCell>
                <mxCell id="7" value="Views" style="rounded=0;whiteSpace=wrap;html=1;" parent="1" vertex="1">
                    <mxGeometry x="354" y="320" width="120" height="60" as="geometry"/>
                </mxCell>
                <mxCell id="18" style="edgeStyle=orthogonalEdgeStyle;orthogonalLoop=1;jettySize=auto;html=1;entryX=1;entryY=0.5;entryDx=0;entryDy=0;strokeWidth=3;rounded=1;exitX=1;exitY=0.75;exitDx=0;exitDy=0;" parent="1" source="8" target="9" edge="1">
                    <mxGeometry relative="1" as="geometry"/>
                </mxCell>
                <mxCell id="19" value="ORM" style="edgeLabel;html=1;align=center;verticalAlign=middle;resizable=0;points=[];" parent="18" vertex="1" connectable="0">
                    <mxGeometry x="0.2844" y="-4" relative="1" as="geometry">
                        <mxPoint y="-16" as="offset"/>
                    </mxGeometry>
                </mxCell>
                <mxCell id="32" style="edgeStyle=orthogonalEdgeStyle;rounded=1;orthogonalLoop=1;jettySize=auto;html=1;exitX=0;exitY=0.25;exitDx=0;exitDy=0;entryX=0;entryY=0.75;entryDx=0;entryDy=0;strokeWidth=2;" parent="1" source="8" target="7" edge="1">
                    <mxGeometry relative="1" as="geometry"/>
                </mxCell>
                <mxCell id="8" value="Models" style="rounded=0;whiteSpace=wrap;html=1;" parent="1" vertex="1">
                    <mxGeometry x="354" y="400" width="120" height="60" as="geometry"/>
                </mxCell>
                <mxCell id="31" style="edgeStyle=orthogonalEdgeStyle;rounded=1;orthogonalLoop=1;jettySize=auto;html=1;entryX=0;entryY=0.75;entryDx=0;entryDy=0;strokeWidth=2;exitX=0;exitY=0.5;exitDx=0;exitDy=0;" parent="1" source="9" target="8" edge="1">
                    <mxGeometry relative="1" as="geometry"/>
                </mxCell>
                <mxCell id="9" value="Db" style="rounded=0;whiteSpace=wrap;html=1;" parent="1" vertex="1">
                    <mxGeometry x="354" y="480" width="120" height="60" as="geometry"/>
                </mxCell>
            </root>
        </mxGraphModel>
    </diagram>
    <diagram id="Mo3qlnNRTG83h9PAODqy" name="Admin">
        &#xa;        &#xa;        &#xa;&#xa;&#xa;
        <mxGraphModel dx="820" dy="575" grid="1" gridSize="10" guides="1" tooltips="1" connect="1" arrows="1" fold="1" page="1" pageScale="1" pageWidth="827" pageHeight="1169" math="0" shadow="0">
            &#xa;            &#xa;            &#xa;&#xa;&#xa;
            <root>
                &#xa;                &#xa;                &#xa;&#xa;&#xa;
                <mxCell id="nR8_Lka7AauFmWWhZFv9-0"/>
                &#xa;                &#xa;                &#xa;&#xa;&#xa;
                <mxCell id="nR8_Lka7AauFmWWhZFv9-1" parent="nR8_Lka7AauFmWWhZFv9-0"/>
                &#xa;                &#xa;                &#xa;&#xa;&#xa;
            </root>
            &#xa;            &#xa;            &#xa;&#xa;&#xa;
        </mxGraphModel>
        &#xa;        &#xa;        &#xa;&#xa;&#xa;
    </diagram>
    <diagram id="vXhIdEzIrZ-8Kn22KKDw" name="Posts">
        <mxGraphModel dx="820" dy="575" grid="1" gridSize="10" guides="1" tooltips="1" connect="1" arrows="1" fold="1" page="1" pageScale="1" pageWidth="827" pageHeight="1169" math="0" shadow="0">
            <root>
                <mxCell id="2rq-X-6kQqOJAwq5_ZMr-0"/>
                <mxCell id="2rq-X-6kQqOJAwq5_ZMr-1" parent="2rq-X-6kQqOJAwq5_ZMr-0"/>
                <mxCell id="UrrRRr-gjhc1iEDPxStq-1" style="edgeStyle=orthogonalEdgeStyle;rounded=1;orthogonalLoop=1;jettySize=auto;html=1;exitX=1;exitY=0.5;exitDx=0;exitDy=0;entryX=1;entryY=0.5;entryDx=0;entryDy=0;strokeWidth=2;" parent="2rq-X-6kQqOJAwq5_ZMr-1" source="EWTaKcSoo_X1VikzENDr-0" target="UrrRRr-gjhc1iEDPxStq-0" edge="1">
                    <mxGeometry relative="1" as="geometry"/>
                </mxCell>
                <mxCell id="UrrRRr-gjhc1iEDPxStq-2" value="Foo" style="edgeLabel;html=1;align=center;verticalAlign=middle;resizable=0;points=[];" parent="UrrRRr-gjhc1iEDPxStq-1" vertex="1" connectable="0">
                    <mxGeometry x="-0.288" relative="1" as="geometry">
                        <mxPoint y="14" as="offset"/>
                    </mxGeometry>
                </mxCell>
                <mxCell id="EWTaKcSoo_X1VikzENDr-0" value="posts / views" style="rounded=0;whiteSpace=wrap;html=1;" parent="2rq-X-6kQqOJAwq5_ZMr-1" vertex="1">
                    <mxGeometry x="371" y="286.65999999999997" width="84" height="40" as="geometry"/>
                </mxCell>
                <mxCell id="V8Z7jGNoaRs3pHMJ4Wkm-1" value="urls" style="rounded=1;whiteSpace=wrap;html=1;" parent="2rq-X-6kQqOJAwq5_ZMr-1" vertex="1">
                    <mxGeometry x="449" y="206.66" width="88" height="40" as="geometry"/>
                </mxCell>
                <mxCell id="mKOdeYrlN2T5swGik2mf-1" value="&lt;span&gt;http request&lt;/span&gt;" style="shape=display;whiteSpace=wrap;html=1;" parent="2rq-X-6kQqOJAwq5_ZMr-1" vertex="1">
                    <mxGeometry x="364" y="30" width="100" height="50" as="geometry"/>
                </mxCell>
                <mxCell id="mKOdeYrlN2T5swGik2mf-3" value="應該是home裡面有post功能，這裡做相反了" style="rounded=0;whiteSpace=wrap;html=1;" parent="2rq-X-6kQqOJAwq5_ZMr-1" vertex="1">
                    <mxGeometry x="660" y="40" width="150" height="60" as="geometry"/>
                </mxCell>
                <mxCell id="UrrRRr-gjhc1iEDPxStq-3" style="edgeStyle=orthogonalEdgeStyle;rounded=1;orthogonalLoop=1;jettySize=auto;html=1;entryX=0;entryY=0.75;entryDx=0;entryDy=0;strokeWidth=2;exitX=0;exitY=0.5;exitDx=0;exitDy=0;" parent="2rq-X-6kQqOJAwq5_ZMr-1" source="UrrRRr-gjhc1iEDPxStq-0" target="EWTaKcSoo_X1VikzENDr-0" edge="1">
                    <mxGeometry relative="1" as="geometry"/>
                </mxCell>
                <mxCell id="uVDFI8W7jcNKMHtWfkr7-1" value="ORM" style="edgeStyle=orthogonalEdgeStyle;rounded=1;orthogonalLoop=1;jettySize=auto;html=1;entryX=0.5;entryY=0;entryDx=0;entryDy=0;entryPerimeter=0;strokeWidth=2;" parent="2rq-X-6kQqOJAwq5_ZMr-1" source="UrrRRr-gjhc1iEDPxStq-0" target="uVDFI8W7jcNKMHtWfkr7-0" edge="1">
                    <mxGeometry relative="1" as="geometry"/>
                </mxCell>
                <mxCell id="UrrRRr-gjhc1iEDPxStq-0" value="posts / model" style="rounded=0;whiteSpace=wrap;html=1;" parent="2rq-X-6kQqOJAwq5_ZMr-1" vertex="1">
                    <mxGeometry x="371" y="346.65999999999997" width="84" height="40" as="geometry"/>
                </mxCell>
                <mxCell id="UrrRRr-gjhc1iEDPxStq-7" value="wsgi" style="rounded=1;whiteSpace=wrap;html=1;" parent="2rq-X-6kQqOJAwq5_ZMr-1" vertex="1">
                    <mxGeometry x="370" y="120" width="88" height="40" as="geometry"/>
                </mxCell>
                <mxCell id="uVDFI8W7jcNKMHtWfkr7-0" value="DB" style="shape=cylinder3;whiteSpace=wrap;html=1;boundedLbl=1;backgroundOutline=1;size=15;" parent="2rq-X-6kQqOJAwq5_ZMr-1" vertex="1">
                    <mxGeometry x="383" y="460" width="60" height="60" as="geometry"/>
                </mxCell>
                <mxCell id="uVDFI8W7jcNKMHtWfkr7-2" value="home.html" style="shape=parallelogram;perimeter=parallelogramPerimeter;whiteSpace=wrap;html=1;fixedSize=1;" parent="2rq-X-6kQqOJAwq5_ZMr-1" vertex="1">
                    <mxGeometry x="283" y="196.66" width="100" height="50" as="geometry"/>
                </mxCell>
                <mxCell id="uVDFI8W7jcNKMHtWfkr7-3" value="Manage" style="rounded=1;whiteSpace=wrap;html=1;" parent="2rq-X-6kQqOJAwq5_ZMr-1" vertex="1">
                    <mxGeometry x="691" y="140" width="88" height="40" as="geometry"/>
                </mxCell>
                <mxCell id="uVDFI8W7jcNKMHtWfkr7-4" value="App" style="rounded=0;whiteSpace=wrap;html=1;" parent="2rq-X-6kQqOJAwq5_ZMr-1" vertex="1">
                    <mxGeometry x="693" y="196.65999999999997" width="84" height="40" as="geometry"/>
                </mxCell>
                <mxCell id="uVDFI8W7jcNKMHtWfkr7-5" value="Template" style="shape=parallelogram;perimeter=parallelogramPerimeter;whiteSpace=wrap;html=1;fixedSize=1;" parent="2rq-X-6kQqOJAwq5_ZMr-1" vertex="1">
                    <mxGeometry x="685" y="250" width="100" height="50" as="geometry"/>
                </mxCell>
            </root>
        </mxGraphModel>
    </diagram>
</mxfile>